<svg width="176" height="176" viewBox="0 0 176 176" fill="none" xmlns="http://www.w3.org/2000/svg">
<rect width="176" height="176" rx="10" fill="url(#paint0_radial)"/>
<rect width="176" height="176" rx="10" fill="url(#paint1_radial)"/>
<path d="M99.0224 77.3746L109.544 67.2423C109.677 67.1185 109.77 66.9574 109.809 66.7802C109.849 66.603 109.834 66.4179 109.767 66.2493C109.699 66.0807 109.582 65.9364 109.431 65.8354C109.28 65.7344 109.102 65.6815 108.921 65.6834H75.9324C71.0416 65.6834 69.2373 64.9313 68.7852 64.9313C68.554 64.8983 68.3181 64.9293 68.1032 65.021C67.9089 65.0959 67.7419 65.228 67.6243 65.3999C67.5068 65.5718 67.4441 65.7753 67.4446 65.9835C67.4446 66.6616 66.5249 79.6232 66.3457 83.8437C66.3349 84.0755 66.4114 84.3029 66.5602 84.481C66.7089 84.6592 66.9189 84.7751 67.1489 84.8059C67.3789 84.8367 67.6121 84.7802 67.8025 84.6476C67.9929 84.5149 68.1266 84.3156 68.1773 84.0892C68.567 82.242 69.5412 80.3052 70.8857 79.2257C72.6939 77.7175 75.7025 77.3434 77.9004 77.3434L99.0224 77.3746Z" fill="black"/>
<path d="M89.6929 94.6463C89.6656 94.697 77.5769 106.466 75.4842 113.375C75.4842 113.399 75.4842 113.422 75.4842 113.442C74.5675 116.217 74.766 119.24 76.0378 121.872C77.3096 124.503 79.5549 126.537 82.299 127.543C85.0432 128.549 88.071 128.449 90.7425 127.263C93.4139 126.077 95.5195 123.899 96.614 121.189L96.6374 121.154C98.5352 116.996 99.3224 103.076 101.583 94.2644C104.346 83.5163 111.282 71.8018 111.282 71.8018L89.6929 94.6463Z" fill="black"/>
<path d="M72.1873 32.3325H71.4079L66.521 44.881C66.4037 45.1975 66.2308 45.4905 66.0105 45.7462C65.6462 46.0628 65.1869 46.2493 64.705 46.2762V46.8295H68.8358V46.2762C68.56 46.2535 68.2863 46.2092 68.0174 46.1437C67.5966 45.9878 67.4212 45.9215 67.4212 45.5006C67.4776 44.9431 67.6196 44.3977 67.8421 43.8834L68.6215 41.9154H72.5185L74.1124 46.2606H72.2263V46.8295H78.7421V46.2645H77.1833L72.1873 32.3325ZM68.8358 41.2957L70.7337 36.4946L72.4016 41.3191L68.8358 41.2957Z" fill="#1A140F"/>
<path d="M95.1409 34.2421C92.7364 32.469 89.759 32.3481 88.6484 32.3481H79.2955V33.1276H81.6103V51.2332H79.2955V52.0126H89.4512C90.5977 52.0633 91.7429 51.8854 92.82 51.4893C93.8972 51.0932 94.8848 50.4869 95.7254 49.7056C96.7506 48.7742 97.5671 47.6364 98.1212 46.367C98.6753 45.0975 98.9545 43.7252 98.9405 42.3402C98.9405 38.8523 97.1985 35.8165 95.1214 34.2265L95.1409 34.2421ZM93.0793 49.0353C91.879 51.0501 90.3748 51.2293 89.0225 51.2293H85.5152V33.1198H88.1651C90.1799 33.1198 92.4948 33.4822 93.695 36.4245C94.3264 37.9833 94.568 40.2942 94.568 42.309C94.568 44.3822 94.3575 46.8685 93.0637 49.0314" fill="#1A140F"/>
<path d="M100.92 33.1236H103.231V51.2293H100.92V52.0204H109.482V51.2293H107.167V33.1236H109.482V32.3325H100.92V33.1236Z" fill="#1A140F"/>
<path d="M128.418 35.6372C127.571 34.5079 126.473 33.5913 125.21 32.96C123.948 32.3287 122.555 32 121.144 32C119.732 32 118.34 32.3287 117.078 32.96C115.815 33.5913 114.717 34.5079 113.87 35.6372C112.447 37.5135 111.676 39.8039 111.676 42.1589C111.676 44.514 112.447 46.8044 113.87 48.6806C114.712 49.8178 115.808 50.7417 117.071 51.3784C118.334 52.0151 119.729 52.3468 121.144 52.3468C122.559 52.3468 123.953 52.0151 125.217 51.3784C126.48 50.7417 127.576 49.8178 128.418 48.6806C129.841 46.8044 130.611 44.514 130.611 42.1589C130.611 39.8039 129.841 37.5135 128.418 35.6372V35.6372ZM125.627 47.492C124.665 50.4655 122.9 51.5723 121.146 51.5723C119.392 51.5723 117.639 50.4694 116.664 47.492C116.154 45.9605 116.033 44.1874 116.033 42.1414C116.033 40.0955 116.154 38.3262 116.664 36.7908C117.627 33.8446 119.392 32.7417 121.146 32.7417C122.9 32.7417 124.653 33.8446 125.627 36.7908C126.138 38.3223 126.259 40.0994 126.259 42.1414C126.259 44.1835 126.122 45.9761 125.627 47.492Z" fill="#1A140F"/>
<path d="M60.652 44.1718C60.1332 43.4237 59.4303 42.8219 58.6112 42.4246C57.792 42.0273 56.8843 41.8479 55.9756 41.9037C57.6309 41.7453 59.2122 41.1406 60.5507 40.1539C61.0377 39.7277 61.4229 39.1976 61.6779 38.6027C61.9328 38.0079 62.051 37.3634 62.0238 36.7167C62.0132 35.9861 61.7994 35.2729 61.4064 34.6569C61.0134 34.0409 60.4567 33.5464 59.7986 33.2289C58.5671 32.5391 56.7939 32.3248 53.7854 32.3248H45.0911V33.1042H47.4021V51.2098H45.0911V51.9893H53.6646V51.2098H51.3381V41.9193H53.2476C56.0262 42.2272 57.6435 45.4266 58.8282 47.1881C60.0129 48.9496 62.6005 53.3376 68.1421 54.3431C73.6837 55.3485 76.287 51.9269 76.5247 51.6151C68.7306 53.665 64.0541 48.9145 60.6403 44.1757L60.652 44.1718ZM51.3381 41.1282V33.1198H53.0528C53.6841 33.1198 55.4573 33.2406 56.2406 33.6926C57.3512 34.324 57.6825 35.3372 57.6825 36.6895C57.6825 38.2249 57.5032 38.9965 56.7511 39.8071C55.6677 40.9762 54.1634 41.1321 52.854 41.1321H51.3381V41.1282Z" fill="#1A140F"/>
<path d="M48.1815 141.723H45.3445V144.899H44V137.903H45.3445V140.705H48.1815V137.903H49.526V144.918H48.1815V141.723Z" fill="#1A140F"/>
<path d="M52.3747 143.207L51.8681 144.895H50.4769L52.9047 137.88H54.3427L56.7784 144.895H55.3404L54.8416 143.207H52.3747V143.207ZM52.6709 142.182H54.5337L53.614 139.065L52.6709 142.182Z" fill="#1A140F"/>
<path d="M63.7268 144.992C63.2453 145.015 62.7642 144.941 62.3122 144.773C61.8602 144.606 61.4466 144.349 61.0963 144.018C60.465 143.288 60.1176 142.356 60.1176 141.391C60.1176 140.427 60.465 139.494 61.0963 138.765C61.4486 138.432 61.8649 138.175 62.3197 138.008C62.7746 137.841 63.2586 137.768 63.7423 137.794C64.5329 137.779 65.3107 137.996 65.9793 138.418L65.5895 139.408C65.083 139.072 64.4904 138.889 63.8826 138.882C63.5633 138.867 63.2445 138.919 62.947 139.036C62.6494 139.153 62.38 139.331 62.1563 139.56C61.7085 140.063 61.4774 140.723 61.5132 141.395C61.4965 141.729 61.5464 142.063 61.6602 142.378C61.7739 142.692 61.9492 142.981 62.1757 143.227C62.3972 143.453 62.6634 143.63 62.9573 143.748C63.2512 143.865 63.5663 143.92 63.8826 143.909C64.4904 143.901 65.083 143.719 65.5895 143.383L65.9793 144.373C65.3059 144.797 64.5222 145.012 63.7268 144.992V144.992Z" fill="#1A140F"/>
<path d="M68.5319 138.979V140.698H71.3416V141.723H68.5319V143.815H71.5365V144.899H67.1913V137.903H71.5365V138.987H68.5319V138.979Z" fill="#1A140F"/>
<path d="M78.4537 140.168L76.9183 143.141H75.7102L74.1748 140.168V144.899H72.9005V137.903H74.2449L76.326 142.03L78.3875 137.903H79.7709V144.918H78.4576V140.168H78.4537Z" fill="#1A140F"/>
<path d="M86.7233 144.899H85.41V140.129L82.5223 144.899H81.1895V137.903H82.5028V142.673L85.41 137.903H86.7233V144.918V144.899Z" fill="#1A140F"/>
<path d="M93.4496 142.19L92.0973 144.918H90.5814L92.5766 141.368L90.6281 137.915H92.1363L93.4691 140.534L94.8019 137.915H96.271L94.3225 141.368L96.3178 144.918H94.7824L93.4496 142.19Z" fill="#1A140F"/>
<path d="M97.8961 138.773C98.5964 138.146 99.5031 137.799 100.443 137.799C101.383 137.799 102.289 138.146 102.99 138.773C103.606 139.508 103.945 140.437 103.945 141.397C103.945 142.357 103.606 143.286 102.99 144.022C102.289 144.648 101.383 144.995 100.443 144.995C99.5031 144.995 98.5964 144.648 97.8961 144.022C97.2792 143.286 96.941 142.357 96.941 141.397C96.941 140.437 97.2792 139.508 97.8961 138.773V138.773ZM98.8898 143.235C99.0919 143.444 99.3341 143.61 99.6019 143.724C99.8697 143.838 100.158 143.896 100.449 143.896C100.74 143.896 101.028 143.838 101.295 143.724C101.563 143.61 101.805 143.444 102.007 143.235C102.382 142.695 102.583 142.054 102.583 141.397C102.583 140.74 102.382 140.099 102.007 139.56C101.805 139.35 101.563 139.184 101.295 139.07C101.028 138.957 100.74 138.898 100.449 138.898C100.158 138.898 99.8697 138.957 99.6019 139.07C99.3341 139.184 99.0919 139.35 98.8898 139.56C98.5157 140.099 98.3152 140.739 98.3152 141.395C98.3152 142.051 98.5157 142.692 98.8898 143.231V143.235Z" fill="#1A140F"/>
<path d="M110.565 144.899H109.221V138.979H107.187V141.493C107.215 142.197 107.124 142.9 106.918 143.574C106.779 144.011 106.481 144.381 106.084 144.61C105.567 144.851 105.006 144.984 104.435 145L104.357 143.944C104.673 143.943 104.983 143.87 105.265 143.73C105.491 143.565 105.647 143.322 105.702 143.048C105.815 142.545 105.864 142.031 105.846 141.516V137.903H110.565V144.918V144.899Z" fill="#1A140F"/>
<path d="M117.58 140.168H117.549L116.013 143.141H114.821L113.286 140.168V144.899H112.011V137.903H113.356L115.437 142.03L117.514 137.903H118.897V144.918H117.584V140.168H117.58Z" fill="#1A140F"/>
<path d="M121.734 143.207L121.228 144.895H119.836L122.264 137.88H123.702L126.138 144.895H124.7L124.201 143.207H121.734V143.207ZM122.031 142.182H123.893L122.974 139.065L122.031 142.182Z" fill="#1A140F"/>
<path d="M129.564 142.19L128.211 144.918H126.715L128.71 141.368L126.762 137.915H128.27L129.602 140.534L130.935 137.915H132.404L130.456 141.368L132.451 144.918H130.916L129.564 142.19Z" fill="#1A140F"/>
<defs>
<radialGradient id="paint0_radial" cx="0" cy="0" r="1" gradientUnits="userSpaceOnUse" gradientTransform="translate(73 64.5) rotate(48.2122) scale(138.811)">
<stop stop-color="#F2710C"/>
<stop offset="0.386565" stop-color="#EB650E"/>
<stop offset="1" stop-color="#D13518"/>
</radialGradient>
<radialGradient id="paint1_radial" cx="0" cy="0" r="1" gradientUnits="userSpaceOnUse" gradientTransform="translate(73 64.5) rotate(48.2122) scale(138.811)">
<stop stop-color="#F2710C"/>
<stop offset="0.386565" stop-color="#EB650E"/>
<stop offset="1" stop-color="#D13518"/>
</radialGradient>
</defs>
</svg>
